﻿<Cube xmlns:xsd="http://www.w3.org/2001/XMLSchema" xmlns:xsi="http://www.w3.org/2001/XMLSchema-instance" xmlns:ddl2="http://schemas.microsoft.com/analysisservices/2003/engine/2" xmlns:ddl2_2="http://schemas.microsoft.com/analysisservices/2003/engine/2/2" xmlns:ddl100_100="http://schemas.microsoft.com/analysisservices/2008/engine/100/100" xmlns:ddl200="http://schemas.microsoft.com/analysisservices/2010/engine/200" xmlns:ddl200_200="http://schemas.microsoft.com/analysisservices/2010/engine/200/200" xmlns:ddl300="http://schemas.microsoft.com/analysisservices/2011/engine/300" xmlns:ddl300_300="http://schemas.microsoft.com/analysisservices/2011/engine/300/300" xmlns:ddl400="http://schemas.microsoft.com/analysisservices/2012/engine/400" xmlns:ddl400_400="http://schemas.microsoft.com/analysisservices/2012/engine/400/400" xmlns:ddl500="http://schemas.microsoft.com/analysisservices/2013/engine/500" xmlns:ddl500_500="http://schemas.microsoft.com/analysisservices/2013/engine/500/500" xmlns:dwd="http://schemas.microsoft.com/DataWarehouse/Designer/1.0" dwd:design-time-name="4feb59f6-8949-402c-959d-48f4b73a41f9" xmlns="http://schemas.microsoft.com/analysisservices/2003/engine">
  <ID>Adventure Works DW2014</ID>
  <Name>Adventure Works DW2014</Name>
  <CreatedTimestamp>0001-01-01T00:00:00Z</CreatedTimestamp>
  <LastSchemaUpdate>0001-01-01T00:00:00Z</LastSchemaUpdate>
  <Annotations>
    <Annotation>
      <Name>http://schemas.microsoft.com/DataWarehouse/Designer/1.0:DiagramLayout</Name>
      <Value>
        <dds xmlns="">
          <diagram fontclsid="{0BE35203-8F91-11CE-9DE3-00AA004BB851}" mouseiconclsid="{0BE35204-8F91-11CE-9DE3-00AA004BB851}" defaultlayout="MSDDS.Rectilinear" defaultlineroute="MSDDS.Rectilinear" version="7" nextobject="28" scale="100" pagebreakanchorx="0" pagebreakanchory="0" pagebreaksizex="0" pagebreaksizey="0" scrollleft="-1504" scrolltop="-2997" gridx="150" gridy="150" marginx="5000" marginy="5000" zoom="75" x="16060" y="13441" backcolor="16777215" defaultpersistence="2" PrintPageNumbersMode="3" PrintMarginTop="0" PrintMarginBottom="635" PrintMarginLeft="0" PrintMarginRight="0" marqueeselectionmode="0" mousepointer="0" snaptogrid="0" autotypeannotation="1" showscrollbars="1" viewpagebreaks="0" donotforceconnectorsbehindshapes="1" backpictureclsid="{00000000-0000-0000-0000-000000000000}">
            <font>
              <ddsxmlobjectstreamwrapper binary="01cc0000900144420100065461686f6d61" />
            </font>
            <mouseicon>
              <ddsxmlobjectstreamwrapper binary="6c74000000000000" />
            </mouseicon>
          </diagram>
          <layoutmanager>
            <ddsxmlobj />
          </layoutmanager>
          <ddscontrol controlprogid="DdsShapes.DdsObjectManagedBridge.3" tooltip="FactInternetSales" left="6918" top="7400" logicalid="14" controlid="1" masterid="0" hint1="0" hint2="0" width="5653" height="6306" noresize="0" nomove="0" nodefaultattachpoints="0" autodrag="1" usedefaultiddshape="1" selectable="1" showselectionhandles="1" allownudging="1" isannotation="0" dontautolayout="0" groupcollapsed="0" tabstop="1" visible="1" snaptogrid="0">
            <control>
              <ddsxmlobjectstreaminitwrapper binary="000c000015160000a2180000" />
            </control>
            <layoutobject>
              <ddsxmlobj>
                <property name="LogicalObject" value="dbo_FactInternetSales" vartype="8" />
              </ddsxmlobj>
            </layoutobject>
            <shape groupshapeid="0" groupnode="0" />
          </ddscontrol>
          <ddscontrol controlprogid="DdsShapes.DdsObjectManagedBridge.3" tooltip="DimSalesTerritory" left="20" top="8114" logicalid="15" controlid="2" masterid="0" hint1="0" hint2="0" width="4498" height="3572" noresize="0" nomove="0" nodefaultattachpoints="0" autodrag="1" usedefaultiddshape="1" selectable="1" showselectionhandles="1" allownudging="1" isannotation="0" dontautolayout="0" groupcollapsed="0" tabstop="1" visible="1" snaptogrid="0">
            <control>
              <ddsxmlobjectstreaminitwrapper binary="000c000092110000f40d0000" />
            </control>
            <layoutobject>
              <ddsxmlobj>
                <property name="LogicalObject" value="dbo_DimSalesTerritory" vartype="8" />
              </ddsxmlobj>
            </layoutobject>
            <shape groupshapeid="0" groupnode="0" />
          </ddscontrol>
          <ddscontrol controlprogid="DdsShapes.DdsObjectManagedBridge.3" tooltip="DimDate" left="3403" top="14800" logicalid="16" controlid="3" masterid="0" hint1="0" hint2="0" width="4524" height="5000" noresize="0" nomove="0" nodefaultattachpoints="0" autodrag="1" usedefaultiddshape="1" selectable="1" showselectionhandles="1" allownudging="1" isannotation="0" dontautolayout="0" groupcollapsed="0" tabstop="1" visible="1" snaptogrid="0">
            <control>
              <ddsxmlobjectstreaminitwrapper binary="000c0000ac11000088130000" />
            </control>
            <layoutobject>
              <ddsxmlobj>
                <property name="LogicalObject" value="dbo_DimDate" vartype="8" />
              </ddsxmlobj>
            </layoutobject>
            <shape groupshapeid="0" groupnode="0" />
          </ddscontrol>
          <ddscontrol controlprogid="DdsShapes.DdsObjectManagedBridge.3" tooltip="DimCustomer" left="10327" top="14800" logicalid="17" controlid="4" masterid="0" hint1="0" hint2="0" width="4207" height="5000" noresize="0" nomove="0" nodefaultattachpoints="0" autodrag="1" usedefaultiddshape="1" selectable="1" showselectionhandles="1" allownudging="1" isannotation="0" dontautolayout="0" groupcollapsed="0" tabstop="1" visible="1" snaptogrid="0">
            <control>
              <ddsxmlobjectstreaminitwrapper binary="000c00006f10000088130000" />
            </control>
            <layoutobject>
              <ddsxmlobj>
                <property name="LogicalObject" value="dbo_DimCustomer" vartype="8" />
              </ddsxmlobj>
            </layoutobject>
            <shape groupshapeid="0" groupnode="0" />
          </ddscontrol>
          <ddscontrol controlprogid="DdsShapes.DdsObjectManagedBridge.3" tooltip="DimPromotion" left="6680" top="0" logicalid="18" controlid="5" masterid="0" hint1="0" hint2="0" width="4577" height="5000" noresize="0" nomove="0" nodefaultattachpoints="0" autodrag="1" usedefaultiddshape="1" selectable="1" showselectionhandles="1" allownudging="1" isannotation="0" dontautolayout="0" groupcollapsed="0" tabstop="1" visible="1" snaptogrid="0">
            <control>
              <ddsxmlobjectstreaminitwrapper binary="000c0000e111000088130000" />
            </control>
            <layoutobject>
              <ddsxmlobj>
                <property name="LogicalObject" value="dbo_DimPromotion" vartype="8" />
              </ddsxmlobj>
            </layoutobject>
            <shape groupshapeid="0" groupnode="0" />
          </ddscontrol>
          <ddscontrol controlprogid="DdsShapes.DdsObjectManagedBridge.3" tooltip="DimProduct" left="13419" top="7400" logicalid="19" controlid="6" masterid="0" hint1="0" hint2="0" width="4366" height="5000" noresize="0" nomove="0" nodefaultattachpoints="0" autodrag="1" usedefaultiddshape="1" selectable="1" showselectionhandles="1" allownudging="1" isannotation="0" dontautolayout="0" groupcollapsed="0" tabstop="1" visible="1" snaptogrid="0">
            <control>
              <ddsxmlobjectstreaminitwrapper binary="000c00000e11000088130000" />
            </control>
            <layoutobject>
              <ddsxmlobj>
                <property name="LogicalObject" value="dbo_DimProduct" vartype="8" />
              </ddsxmlobj>
            </layoutobject>
            <shape groupshapeid="0" groupnode="0" />
          </ddscontrol>
          <ddscontrol controlprogid="MSDDS.Polyline" left="4218" top="7851" logicalid="20" controlid="7" masterid="0" hint1="0" hint2="0" width="3000" height="802" noresize="0" nomove="0" nodefaultattachpoints="1" autodrag="0" usedefaultiddshape="0" selectable="1" showselectionhandles="0" allownudging="1" isannotation="0" dontautolayout="0" groupcollapsed="0" tabstop="1" visible="1" snaptogrid="0">
            <control>
              <ddsxmlobj>
                <polyline endtypedst="6" endtypesrc="3" usercolor="0" linestyle="0" linerender="1" customendtypedstid="0" customendtypesrcid="0" adornsvisible="1" />
              </ddsxmlobj>
            </control>
            <layoutobject>
              <ddsxmlobj>
                <property name="LogicalObject" value="dataSet.Relations[FK_FactInternetSales_DimSalesTerritory]" vartype="8" />
                <property name="Virtual" value="0" vartype="11" />
                <property name="VisibleAP" value="0" vartype="3" />
              </ddsxmlobj>
            </layoutobject>
            <connector lineroutestyle="MSDDS.Rectilinear" sourceid="2" destid="1" sourceattachpoint="15" destattachpoint="20" segmenteditmode="0" bendpointeditmode="0" bendpointvisibility="0" relatedid="0" virtual="0">
              <point x="4518" y="8250" />
              <point x="5718" y="8250" />
              <point x="5718" y="8353" />
              <point x="6918" y="8353" />
            </connector>
          </ddscontrol>
          <ddscontrol controlprogid="MSDDS.Polyline" left="10381" top="13406" logicalid="21" controlid="8" masterid="0" hint1="0" hint2="0" width="799" height="1894" noresize="0" nomove="0" nodefaultattachpoints="1" autodrag="0" usedefaultiddshape="0" selectable="1" showselectionhandles="0" allownudging="1" isannotation="0" dontautolayout="0" groupcollapsed="0" tabstop="1" visible="1" snaptogrid="0">
            <control>
              <ddsxmlobj>
                <polyline endtypedst="6" endtypesrc="3" usercolor="0" linestyle="0" linerender="1" customendtypedstid="0" customendtypesrcid="0" adornsvisible="1" />
              </ddsxmlobj>
            </control>
            <layoutobject>
              <ddsxmlobj>
                <property name="LogicalObject" value="dataSet.Relations[FK_FactInternetSales_DimCustomer]" vartype="8" />
                <property name="Virtual" value="0" vartype="11" />
                <property name="VisibleAP" value="0" vartype="3" />
              </ddsxmlobj>
            </layoutobject>
            <connector lineroutestyle="MSDDS.Rectilinear" sourceid="4" destid="1" sourceattachpoint="0" destattachpoint="13" segmenteditmode="0" bendpointeditmode="0" bendpointvisibility="0" relatedid="0" virtual="0">
              <point x="10780" y="14800" />
              <point x="10780" y="14253" />
              <point x="10844" y="14253" />
              <point x="10844" y="13706" />
            </connector>
          </ddscontrol>
          <ddscontrol controlprogid="MSDDS.Polyline" left="6919" top="4501" logicalid="22" controlid="9" masterid="0" hint1="0" hint2="0" width="925" height="3199" noresize="0" nomove="0" nodefaultattachpoints="1" autodrag="0" usedefaultiddshape="0" selectable="1" showselectionhandles="0" allownudging="1" isannotation="0" dontautolayout="0" groupcollapsed="0" tabstop="1" visible="1" snaptogrid="0">
            <control>
              <ddsxmlobj>
                <polyline endtypedst="6" endtypesrc="3" usercolor="0" linestyle="0" linerender="1" customendtypedstid="0" customendtypesrcid="0" adornsvisible="1" />
              </ddsxmlobj>
            </control>
            <layoutobject>
              <ddsxmlobj>
                <property name="LogicalObject" value="dataSet.Relations[FK_FactInternetSales_DimPromotion]" vartype="8" />
                <property name="Virtual" value="0" vartype="11" />
                <property name="VisibleAP" value="0" vartype="3" />
              </ddsxmlobj>
            </layoutobject>
            <connector lineroutestyle="MSDDS.Rectilinear" sourceid="5" destid="1" sourceattachpoint="1" destattachpoint="0" segmenteditmode="0" bendpointeditmode="0" bendpointvisibility="0" relatedid="0" virtual="0">
              <point x="7318" y="5000" />
              <point x="7318" y="6200" />
              <point x="7544" y="6200" />
              <point x="7544" y="7400" />
            </connector>
          </ddscontrol>
          <ddscontrol controlprogid="MSDDS.Polyline" left="12271" top="7301" logicalid="23" controlid="10" masterid="0" hint1="0" hint2="0" width="1448" height="802" noresize="0" nomove="0" nodefaultattachpoints="1" autodrag="0" usedefaultiddshape="0" selectable="1" showselectionhandles="0" allownudging="1" isannotation="0" dontautolayout="0" groupcollapsed="0" tabstop="1" visible="1" snaptogrid="0">
            <control>
              <ddsxmlobj>
                <polyline endtypedst="6" endtypesrc="3" usercolor="0" linestyle="0" linerender="1" customendtypedstid="0" customendtypesrcid="0" adornsvisible="1" />
              </ddsxmlobj>
            </control>
            <layoutobject>
              <ddsxmlobj>
                <property name="LogicalObject" value="dataSet.Relations[FK_FactInternetSales_DimProduct]" vartype="8" />
                <property name="Virtual" value="0" vartype="11" />
                <property name="VisibleAP" value="0" vartype="3" />
              </ddsxmlobj>
            </layoutobject>
            <connector lineroutestyle="MSDDS.Rectilinear" sourceid="6" destid="1" sourceattachpoint="14" destattachpoint="19" segmenteditmode="0" bendpointeditmode="0" bendpointvisibility="0" relatedid="0" virtual="0">
              <point x="13419" y="7700" />
              <point x="13019" y="7700" />
              <point x="13019" y="7803" />
              <point x="12571" y="7803" />
            </connector>
          </ddscontrol>
          <ddscontrol controlprogid="MSDDS.Polyline" left="6916" top="13406" logicalid="24" controlid="11" masterid="0" hint1="0" hint2="0" width="928" height="1894" noresize="0" nomove="0" nodefaultattachpoints="1" autodrag="0" usedefaultiddshape="0" selectable="1" showselectionhandles="0" allownudging="1" isannotation="0" dontautolayout="0" groupcollapsed="0" tabstop="1" visible="1" snaptogrid="0">
            <control>
              <ddsxmlobj>
                <polyline endtypedst="6" endtypesrc="3" usercolor="0" linestyle="0" linerender="1" customendtypedstid="0" customendtypesrcid="0" adornsvisible="1" />
              </ddsxmlobj>
            </control>
            <layoutobject>
              <ddsxmlobj>
                <property name="LogicalObject" value="dataSet.Relations[FK_FactInternetSales_DimDate]" vartype="8" />
                <property name="Virtual" value="0" vartype="11" />
                <property name="VisibleAP" value="0" vartype="3" />
              </ddsxmlobj>
            </layoutobject>
            <connector lineroutestyle="MSDDS.Rectilinear" sourceid="3" destid="1" sourceattachpoint="12" destattachpoint="1" segmenteditmode="0" bendpointeditmode="0" bendpointvisibility="0" relatedid="0" virtual="0">
              <point x="7315" y="14800" />
              <point x="7315" y="14253" />
              <point x="7544" y="14253" />
              <point x="7544" y="13706" />
            </connector>
          </ddscontrol>
          <ddscontrol controlprogid="MSDDS.Polyline" left="6916" top="13406" logicalid="25" controlid="12" masterid="0" hint1="0" hint2="0" width="928" height="1894" noresize="0" nomove="0" nodefaultattachpoints="1" autodrag="0" usedefaultiddshape="0" selectable="1" showselectionhandles="0" allownudging="1" isannotation="0" dontautolayout="0" groupcollapsed="0" tabstop="1" visible="1" snaptogrid="0">
            <control>
              <ddsxmlobj>
                <polyline endtypedst="6" endtypesrc="3" usercolor="0" linestyle="0" linerender="1" customendtypedstid="0" customendtypesrcid="0" adornsvisible="1" />
              </ddsxmlobj>
            </control>
            <layoutobject>
              <ddsxmlobj>
                <property name="LogicalObject" value="dataSet.Relations[FK_FactInternetSales_DimDate2]" vartype="8" />
                <property name="Virtual" value="0" vartype="11" />
                <property name="VisibleAP" value="0" vartype="3" />
              </ddsxmlobj>
            </layoutobject>
            <connector lineroutestyle="MSDDS.Rectilinear" sourceid="3" destid="1" sourceattachpoint="12" destattachpoint="1" segmenteditmode="0" bendpointeditmode="0" bendpointvisibility="0" relatedid="0" virtual="0">
              <point x="7315" y="14800" />
              <point x="7315" y="14253" />
              <point x="7544" y="14253" />
              <point x="7544" y="13706" />
            </connector>
          </ddscontrol>
          <ddscontrol controlprogid="MSDDS.Polyline" left="6916" top="13406" logicalid="26" controlid="13" masterid="0" hint1="0" hint2="0" width="928" height="1894" noresize="0" nomove="0" nodefaultattachpoints="1" autodrag="0" usedefaultiddshape="0" selectable="1" showselectionhandles="0" allownudging="1" isannotation="0" dontautolayout="0" groupcollapsed="0" tabstop="1" visible="1" snaptogrid="0">
            <control>
              <ddsxmlobj>
                <polyline endtypedst="6" endtypesrc="3" usercolor="0" linestyle="0" linerender="1" customendtypedstid="0" customendtypesrcid="0" adornsvisible="1" />
              </ddsxmlobj>
            </control>
            <layoutobject>
              <ddsxmlobj>
                <property name="LogicalObject" value="dataSet.Relations[FK_FactInternetSales_DimDate1]" vartype="8" />
                <property name="Virtual" value="0" vartype="11" />
                <property name="VisibleAP" value="0" vartype="3" />
              </ddsxmlobj>
            </layoutobject>
            <connector lineroutestyle="MSDDS.Rectilinear" sourceid="3" destid="1" sourceattachpoint="12" destattachpoint="1" segmenteditmode="0" bendpointeditmode="0" bendpointvisibility="0" relatedid="0" virtual="0">
              <point x="7315" y="14800" />
              <point x="7315" y="14253" />
              <point x="7544" y="14253" />
              <point x="7544" y="13706" />
            </connector>
          </ddscontrol>
        </dds>
      </Value>
    </Annotation>
    <Annotation>
      <Name>http://schemas.microsoft.com/DataWarehouse/Designer/1.0:ShowFriendlyNames</Name>
      <Value>true</Value>
    </Annotation>
    <Annotation>
      <Name>http://schemas.microsoft.com/DataWarehouse/Designer/1.0:ShowRelationshipNames</Name>
      <Value>false</Value>
    </Annotation>
    <Annotation>
      <Name>http://schemas.microsoft.com/DataWarehouse/Designer/1.0:UseDiagramDefaultLayout</Name>
      <Value>true</Value>
    </Annotation>
    <Annotation>
      <Name>http://schemas.microsoft.com/DataWarehouse/Designer/1.0:DiagramViewPortLeft</Name>
      <Value>-1504</Value>
    </Annotation>
    <Annotation>
      <Name>http://schemas.microsoft.com/DataWarehouse/Designer/1.0:DiagramViewPortTop</Name>
      <Value>-2997</Value>
    </Annotation>
    <Annotation>
      <Name>http://schemas.microsoft.com/DataWarehouse/Designer/1.0:DiagramBoundingLeft</Name>
      <Value>20</Value>
    </Annotation>
    <Annotation>
      <Name>http://schemas.microsoft.com/DataWarehouse/Designer/1.0:DiagramBoundingTop</Name>
      <Value>0</Value>
    </Annotation>
    <Annotation>
      <Name>http://schemas.microsoft.com/DataWarehouse/Designer/1.0:DiagramZoom</Name>
      <Value>75</Value>
    </Annotation>
  </Annotations>
  <LastProcessed>0001-01-01T00:00:00Z</LastProcessed>
  <State>Unprocessed</State>
  <Dimensions>
    <Dimension dwd:design-time-name="909c0e6b-8c1c-4796-a2d5-2f356d1426fc">
      <ID>Dim Product</ID>
      <Name>Dim Product</Name>
      <DimensionID>Dim Product</DimensionID>
      <Attributes>
        <Attribute dwd:design-time-name="98ea4c4b-9c33-4ac3-b55b-1c8453de247a">
          <AttributeID>Product Key</AttributeID>
        </Attribute>
      </Attributes>
    </Dimension>
    <Dimension dwd:design-time-name="897060ec-9431-4b3c-8126-6edc0ebbe009">
      <ID>Dim Customer</ID>
      <Name>Dim Customer</Name>
      <DimensionID>Dim Customer</DimensionID>
      <Attributes>
        <Attribute dwd:design-time-name="727c46bb-0029-4cfc-9547-53a9726d393c">
          <AttributeID>Customer Key</AttributeID>
        </Attribute>
      </Attributes>
    </Dimension>
    <Dimension dwd:design-time-name="8d948c69-35af-4f76-baa2-cf87de1f93d3">
      <ID>Dim Promotion</ID>
      <Name>Dim Promotion</Name>
      <DimensionID>Dim Promotion</DimensionID>
      <Attributes>
        <Attribute dwd:design-time-name="d46edc6f-aa54-4833-a12d-afac97781a9f">
          <AttributeID>Promotion Key</AttributeID>
        </Attribute>
      </Attributes>
    </Dimension>
    <Dimension dwd:design-time-name="000a335f-320b-4df5-861c-610f15185a50">
      <ID>Order Date</ID>
      <Name>Order Date</Name>
      <DimensionID>Dim Date</DimensionID>
      <Attributes>
        <Attribute dwd:design-time-name="ab88a396-7987-4e23-a6b4-806e091f9ed9">
          <AttributeID>Date Key</AttributeID>
        </Attribute>
        <Attribute dwd:design-time-name="d52143df-c809-42e8-9fc9-50b594465bfe">
          <AttributeID>Calendar Year</AttributeID>
        </Attribute>
        <Attribute dwd:design-time-name="e1f182b9-8f71-48f4-9c98-703e799f3292">
          <AttributeID>Month Number Of Year</AttributeID>
        </Attribute>
      </Attributes>
      <Hierarchies>
        <Hierarchy dwd:design-time-name="62cef027-444a-4e6c-8442-26257f6c4e3d">
          <HierarchyID>Hierarchy</HierarchyID>
        </Hierarchy>
      </Hierarchies>
    </Dimension>
    <Dimension dwd:design-time-name="f7ca948b-046e-430d-b901-b8ecc00a3894">
      <ID>Ship Date</ID>
      <Name>Ship Date</Name>
      <DimensionID>Dim Date</DimensionID>
      <Attributes>
        <Attribute dwd:design-time-name="d7650eb2-50b8-4fd1-8dde-75e3e5f21bb8">
          <AttributeID>Date Key</AttributeID>
        </Attribute>
        <Attribute dwd:design-time-name="9b776a7a-e3d8-4149-a5dd-bf3fbfdf6a6d">
          <AttributeID>Calendar Year</AttributeID>
        </Attribute>
        <Attribute dwd:design-time-name="7d4a6cbd-b2c8-4399-9f94-70a255bb4bb6">
          <AttributeID>Month Number Of Year</AttributeID>
        </Attribute>
      </Attributes>
      <Hierarchies>
        <Hierarchy dwd:design-time-name="b347b1ff-fea8-4934-8556-fd1fd17e9e81">
          <HierarchyID>Hierarchy</HierarchyID>
        </Hierarchy>
      </Hierarchies>
    </Dimension>
    <Dimension dwd:design-time-name="6ec30ab2-52c8-4719-abc3-3dd7fa778385">
      <ID>Due Date</ID>
      <Name>Due Date</Name>
      <DimensionID>Dim Date</DimensionID>
      <Attributes>
        <Attribute dwd:design-time-name="5a14b013-54b1-42db-8036-3e691b01e0e3">
          <AttributeID>Date Key</AttributeID>
        </Attribute>
        <Attribute dwd:design-time-name="42aa8574-0b7a-42de-b706-3db6c7b7e34d">
          <AttributeID>Calendar Year</AttributeID>
        </Attribute>
        <Attribute dwd:design-time-name="44db0d60-e46f-4a31-9a51-4db7464831a7">
          <AttributeID>Month Number Of Year</AttributeID>
        </Attribute>
      </Attributes>
      <Hierarchies>
        <Hierarchy dwd:design-time-name="0e4a2ea3-3e70-4d4f-b923-1d0c1b847005">
          <HierarchyID>Hierarchy</HierarchyID>
        </Hierarchy>
      </Hierarchies>
    </Dimension>
    <Dimension dwd:design-time-name="480fafc6-a997-4b8d-aca2-1203abef036b">
      <ID>Dim Date</ID>
      <Name>Dim Date</Name>
      <DimensionID>Dim Date</DimensionID>
      <Attributes>
        <Attribute dwd:design-time-name="dc39466b-91c4-452a-b23d-3759f1978da9">
          <AttributeID>Date Key</AttributeID>
        </Attribute>
        <Attribute dwd:design-time-name="87fe6d95-71f1-41d8-bf7b-e0fabe62bc2b">
          <AttributeID>Calendar Year</AttributeID>
        </Attribute>
        <Attribute dwd:design-time-name="0c0d49a7-fa66-45f5-bdcf-10b4c8774328">
          <AttributeID>Month Number Of Year</AttributeID>
        </Attribute>
      </Attributes>
      <Hierarchies>
        <Hierarchy dwd:design-time-name="9b53d258-4b32-45ad-bc4d-2f50082fb333">
          <HierarchyID>Hierarchy</HierarchyID>
        </Hierarchy>
      </Hierarchies>
    </Dimension>
    <Dimension dwd:design-time-name="a5e59443-536a-4321-9e8a-19c25f9396d5">
      <ID>Dim Sales Territory</ID>
      <Name>Dim Sales Territory</Name>
      <DimensionID>Dim Sales Territory</DimensionID>
      <Attributes>
        <Attribute dwd:design-time-name="4864497f-c50d-4b58-ba8e-de777ad99465">
          <AttributeID>Sales Territory Key</AttributeID>
        </Attribute>
        <Attribute dwd:design-time-name="758b6364-fd22-419e-a4b0-70d76b8b98d4">
          <AttributeID>Sales Territory Country</AttributeID>
        </Attribute>
        <Attribute dwd:design-time-name="223afaeb-d4fd-4394-a9d6-4fdb4f6d64d7">
          <AttributeID>Sales Territory Group</AttributeID>
        </Attribute>
      </Attributes>
      <Hierarchies>
        <Hierarchy dwd:design-time-name="f3f3d1ca-2757-40e2-9f3f-1896d88e12e1">
          <HierarchyID>Hierarchy</HierarchyID>
        </Hierarchy>
      </Hierarchies>
    </Dimension>
  </Dimensions>
  <MeasureGroups>
    <MeasureGroup dwd:design-time-name="e28ff2bc-6615-476e-a732-ce7faf8b9aea">
      <ID>Dim Product</ID>
      <Name>Dim Product</Name>
      <CreatedTimestamp>0001-01-01T00:00:00Z</CreatedTimestamp>
      <LastSchemaUpdate>0001-01-01T00:00:00Z</LastSchemaUpdate>
      <LastProcessed>0001-01-01T00:00:00Z</LastProcessed>
      <State>Unprocessed</State>
      <Measures>
        <Measure dwd:design-time-name="8c0c57fc-49c9-405b-86d4-41b69042f88e">
          <ID>Product Subcategory Key</ID>
          <Name>Product Subcategory Key</Name>
          <Source dwd:design-time-name="6883ac6e-d8ff-4c47-9f54-66e883065b03">
            <DataType>Integer</DataType>
            <Source xsi:type="ColumnBinding" dwd:design-time-name="b3e902c4-b45b-4ac7-b47d-46a599a778eb">
              <TableID>dbo_DimProduct</TableID>
              <ColumnID>ProductSubcategoryKey</ColumnID>
            </Source>
          </Source>
        </Measure>
        <Measure dwd:design-time-name="d5708959-0e63-4eb1-a042-4eb2e216dbad">
          <ID>Standard Cost</ID>
          <Name>Standard Cost</Name>
          <Source dwd:design-time-name="be0a9e74-bd7a-4c55-bfc4-ca2d4ce4ad07">
            <DataType>Double</DataType>
            <Source xsi:type="ColumnBinding" dwd:design-time-name="269709dd-1d09-4cf4-9812-9d7666218465">
              <TableID>dbo_DimProduct</TableID>
              <ColumnID>StandardCost</ColumnID>
            </Source>
          </Source>
        </Measure>
        <Measure dwd:design-time-name="462edda0-1c24-4069-98e6-37743feac8e8">
          <ID>Safety Stock Level</ID>
          <Name>Safety Stock Level</Name>
          <Source dwd:design-time-name="cd07fb76-0f68-42f3-ad07-678ce3166576">
            <DataType>Integer</DataType>
            <Source xsi:type="ColumnBinding" dwd:design-time-name="43aacd69-26d2-4e60-b5b2-8f8a45c782b2">
              <TableID>dbo_DimProduct</TableID>
              <ColumnID>SafetyStockLevel</ColumnID>
            </Source>
          </Source>
        </Measure>
        <Measure dwd:design-time-name="e6fc8c2a-8b3d-4b08-8c36-969ddf114daa">
          <ID>Reorder Point</ID>
          <Name>Reorder Point</Name>
          <Source dwd:design-time-name="2484e07d-3985-4741-8592-5bcb5bc2ca5a">
            <DataType>Integer</DataType>
            <Source xsi:type="ColumnBinding" dwd:design-time-name="4d7d8ee5-5bc5-4a0e-9e9f-37e582f042eb">
              <TableID>dbo_DimProduct</TableID>
              <ColumnID>ReorderPoint</ColumnID>
            </Source>
          </Source>
        </Measure>
        <Measure dwd:design-time-name="9c2909b4-6f77-4730-82e5-7087314a2704">
          <ID>List Price</ID>
          <Name>List Price</Name>
          <Source dwd:design-time-name="f7c99439-8cb5-43e3-a6e6-41108665a75c">
            <DataType>Double</DataType>
            <Source xsi:type="ColumnBinding" dwd:design-time-name="10bd3aac-9e31-43b0-9e73-99efc2fdaf15">
              <TableID>dbo_DimProduct</TableID>
              <ColumnID>ListPrice</ColumnID>
            </Source>
          </Source>
        </Measure>
        <Measure dwd:design-time-name="6a05e025-77f9-4ae2-be2c-c8af154147b7">
          <ID>Weight</ID>
          <Name>Weight</Name>
          <Source dwd:design-time-name="d836ad44-b3b9-40f1-9976-18311829c1de">
            <DataType>Double</DataType>
            <Source xsi:type="ColumnBinding" dwd:design-time-name="8adf9872-9154-4254-9b15-8ba5748132f3">
              <TableID>dbo_DimProduct</TableID>
              <ColumnID>Weight</ColumnID>
            </Source>
          </Source>
        </Measure>
        <Measure dwd:design-time-name="58fb7cf2-1a79-43ad-a670-6f211af2234c">
          <ID>Days To Manufacture</ID>
          <Name>Days To Manufacture</Name>
          <Source dwd:design-time-name="3432412e-e358-4fb5-9a77-37f1cbabc257">
            <DataType>Integer</DataType>
            <Source xsi:type="ColumnBinding" dwd:design-time-name="70494ecc-4620-4426-bd74-509d2765e6cf">
              <TableID>dbo_DimProduct</TableID>
              <ColumnID>DaysToManufacture</ColumnID>
            </Source>
          </Source>
        </Measure>
        <Measure dwd:design-time-name="356cccff-cd5b-4306-a0b7-a8ef517fa690">
          <ID>Dealer Price</ID>
          <Name>Dealer Price</Name>
          <Source dwd:design-time-name="b87514ad-1995-4281-a816-8cb379bedacc">
            <DataType>Double</DataType>
            <Source xsi:type="ColumnBinding" dwd:design-time-name="f29784f8-144a-4a7d-8558-b3425dbd7469">
              <TableID>dbo_DimProduct</TableID>
              <ColumnID>DealerPrice</ColumnID>
            </Source>
          </Source>
        </Measure>
        <Measure dwd:design-time-name="f51d546c-8658-47ba-80fe-a31b38a219e1">
          <ID>Dim Product Count</ID>
          <Name>Dim Product Count</Name>
          <AggregateFunction>Count</AggregateFunction>
          <Source dwd:design-time-name="7acd224f-83c9-4c14-8438-8c03d42412c8">
            <DataType>Integer</DataType>
            <DataSize>4</DataSize>
            <Source xsi:type="RowBinding" dwd:design-time-name="f4d1251a-68af-44da-b01b-3293f7ce73da">
              <TableID>dbo_DimProduct</TableID>
            </Source>
          </Source>
        </Measure>
      </Measures>
      <StorageMode>Molap</StorageMode>
      <ProcessingMode>Regular</ProcessingMode>
      <Dimensions>
        <Dimension xsi:type="DegenerateMeasureGroupDimension" dwd:design-time-name="6bb3c80f-c37d-4f23-bfdc-6f03f84c1755">
          <CubeDimensionID>Dim Product</CubeDimensionID>
          <Attributes>
            <Attribute dwd:design-time-name="c9195993-b6b5-4802-8f9b-443196372e5f">
              <AttributeID>Product Key</AttributeID>
              <KeyColumns>
                <KeyColumn dwd:design-time-name="9c7e68de-576f-4b43-a5b4-1d2e05f95bca">
                  <DataType>Integer</DataType>
                  <Source xsi:type="ColumnBinding" dwd:design-time-name="bb2375fc-560a-4ae3-8c81-d89d1539e336">
                    <TableID>dbo_DimProduct</TableID>
                    <ColumnID>ProductKey</ColumnID>
                  </Source>
                </KeyColumn>
              </KeyColumns>
              <Type>Granularity</Type>
            </Attribute>
          </Attributes>
        </Dimension>
      </Dimensions>
      <Partitions />
    </MeasureGroup>
    <MeasureGroup dwd:design-time-name="d4e201b7-1592-4606-8b7e-0281d6b52ac6">
      <ID>Dim Customer</ID>
      <Name>Dim Customer</Name>
      <CreatedTimestamp>0001-01-01T00:00:00Z</CreatedTimestamp>
      <LastSchemaUpdate>0001-01-01T00:00:00Z</LastSchemaUpdate>
      <LastProcessed>0001-01-01T00:00:00Z</LastProcessed>
      <State>Unprocessed</State>
      <Measures>
        <Measure dwd:design-time-name="04fc312a-ada0-4339-b255-6d7ecb5aacbc">
          <ID>Geography Key</ID>
          <Name>Geography Key</Name>
          <Source dwd:design-time-name="74478294-7c8b-42b2-93b8-39f2446fe204">
            <DataType>Integer</DataType>
            <Source xsi:type="ColumnBinding" dwd:design-time-name="a970d61a-0ad2-43cb-bb69-db0eaba18d90">
              <TableID>dbo_DimCustomer</TableID>
              <ColumnID>GeographyKey</ColumnID>
            </Source>
          </Source>
        </Measure>
        <Measure dwd:design-time-name="9577e707-ae37-417b-9add-c49d08c7df05">
          <ID>Yearly Income</ID>
          <Name>Yearly Income</Name>
          <Source dwd:design-time-name="4fcd0ebf-bfdb-486d-a395-a080ee29cb85">
            <DataType>Double</DataType>
            <Source xsi:type="ColumnBinding" dwd:design-time-name="a0abf4de-72cc-49e2-86fc-dca78a462dc8">
              <TableID>dbo_DimCustomer</TableID>
              <ColumnID>YearlyIncome</ColumnID>
            </Source>
          </Source>
        </Measure>
        <Measure dwd:design-time-name="fa70a21f-8700-4dac-b395-bc7a9d15dc33">
          <ID>Total Children</ID>
          <Name>Total Children</Name>
          <Source dwd:design-time-name="f96a8d86-2f6a-4c62-89c4-42ced9bfe907">
            <DataType>UnsignedInt</DataType>
            <Source xsi:type="ColumnBinding" dwd:design-time-name="b12fb260-2e78-46ee-bd10-1676002d93ef">
              <TableID>dbo_DimCustomer</TableID>
              <ColumnID>TotalChildren</ColumnID>
            </Source>
          </Source>
        </Measure>
        <Measure dwd:design-time-name="611440a3-3d04-4ab5-9869-71c93413ea89">
          <ID>Number Children At Home</ID>
          <Name>Number Children At Home</Name>
          <Source dwd:design-time-name="bcb2a057-19c8-4955-9193-4c9f75c27237">
            <DataType>UnsignedInt</DataType>
            <Source xsi:type="ColumnBinding" dwd:design-time-name="a0ef5582-7b4e-412d-925a-ddaa269a4d75">
              <TableID>dbo_DimCustomer</TableID>
              <ColumnID>NumberChildrenAtHome</ColumnID>
            </Source>
          </Source>
        </Measure>
        <Measure dwd:design-time-name="e2d1a796-f749-42b1-b73a-2d005a7e4f38">
          <ID>Number Cars Owned</ID>
          <Name>Number Cars Owned</Name>
          <Source dwd:design-time-name="c714fa85-45ab-4cbb-a7d2-31ed30752607">
            <DataType>UnsignedInt</DataType>
            <Source xsi:type="ColumnBinding" dwd:design-time-name="2b32eca3-1c91-423b-ae8a-10e904796a3a">
              <TableID>dbo_DimCustomer</TableID>
              <ColumnID>NumberCarsOwned</ColumnID>
            </Source>
          </Source>
        </Measure>
        <Measure dwd:design-time-name="343f2294-9058-40f8-a32e-2dd48d97bd49">
          <ID>Dim Customer Count</ID>
          <Name>customer_distinct_count</Name>
          <AggregateFunction>Count</AggregateFunction>
          <Source dwd:design-time-name="ed0adf75-1e8c-4525-af44-e0b1bc6c51e4">
            <DataType>Integer</DataType>
            <DataSize>4</DataSize>
            <Source xsi:type="RowBinding" dwd:design-time-name="8471c315-6b54-4893-9451-9dfdd4093d76">
              <TableID>dbo_DimCustomer</TableID>
            </Source>
          </Source>
        </Measure>
      </Measures>
      <StorageMode>Molap</StorageMode>
      <ProcessingMode>Regular</ProcessingMode>
      <Dimensions>
        <Dimension xsi:type="DegenerateMeasureGroupDimension" dwd:design-time-name="9deb9d43-41c4-41b4-a0ff-75a228b3445e">
          <CubeDimensionID>Dim Customer</CubeDimensionID>
          <Attributes>
            <Attribute dwd:design-time-name="5ae3d980-0656-4ce5-8a15-cad1f3c962f9">
              <AttributeID>Customer Key</AttributeID>
              <KeyColumns>
                <KeyColumn dwd:design-time-name="c1cea79a-803a-4433-a1c8-d0c8aee088b8">
                  <DataType>Integer</DataType>
                  <Source xsi:type="ColumnBinding" dwd:design-time-name="caa6ca8f-92bb-4271-b059-1e5213f41e34">
                    <TableID>dbo_DimCustomer</TableID>
                    <ColumnID>CustomerKey</ColumnID>
                  </Source>
                </KeyColumn>
              </KeyColumns>
              <Type>Granularity</Type>
            </Attribute>
          </Attributes>
        </Dimension>
      </Dimensions>
      <Partitions />
    </MeasureGroup>
    <MeasureGroup dwd:design-time-name="7b74d8df-cd02-4f6b-b45f-d9478f577adb">
      <ID>Dim Promotion</ID>
      <Name>Dim Promotion</Name>
      <CreatedTimestamp>0001-01-01T00:00:00Z</CreatedTimestamp>
      <LastSchemaUpdate>0001-01-01T00:00:00Z</LastSchemaUpdate>
      <LastProcessed>0001-01-01T00:00:00Z</LastProcessed>
      <State>Unprocessed</State>
      <Measures>
        <Measure dwd:design-time-name="86b28869-cbb0-400d-b40b-70fab41c30b3">
          <ID>Promotion Alternate Key</ID>
          <Name>Promotion Alternate Key</Name>
          <Source dwd:design-time-name="3b302c62-b948-47cb-9e8f-c4f34d90daad">
            <DataType>Integer</DataType>
            <Source xsi:type="ColumnBinding" dwd:design-time-name="712b0251-6dce-475a-9494-e41e49e8e1f0">
              <TableID>dbo_DimPromotion</TableID>
              <ColumnID>PromotionAlternateKey</ColumnID>
            </Source>
          </Source>
        </Measure>
        <Measure dwd:design-time-name="b0296161-24bc-433b-84a8-697bd24ffcdc">
          <ID>Discount Pct</ID>
          <Name>Discount Pct</Name>
          <Source dwd:design-time-name="a51c6211-a6e9-498c-bd8e-8bd62a69d9c3">
            <DataType>Double</DataType>
            <Source xsi:type="ColumnBinding" dwd:design-time-name="48d0acb0-dab0-4692-9d23-c27eadddd2d9">
              <TableID>dbo_DimPromotion</TableID>
              <ColumnID>DiscountPct</ColumnID>
            </Source>
          </Source>
        </Measure>
        <Measure dwd:design-time-name="ba4fbfe7-840f-4ed9-893d-86e01ae99812">
          <ID>Min Qty</ID>
          <Name>Min Qty</Name>
          <Source dwd:design-time-name="da24c3c3-bf68-40a2-930a-fa40ef10efe4">
            <DataType>Integer</DataType>
            <Source xsi:type="ColumnBinding" dwd:design-time-name="06f1f505-7e43-4038-bd25-6dc8bce38683">
              <TableID>dbo_DimPromotion</TableID>
              <ColumnID>MinQty</ColumnID>
            </Source>
          </Source>
        </Measure>
        <Measure dwd:design-time-name="20461a0e-cacf-4e72-bc71-b4ffcd4b9afa">
          <ID>Max Qty</ID>
          <Name>Max Qty</Name>
          <Source dwd:design-time-name="eea0ad79-d8b4-4558-8ac5-4fd816538180">
            <DataType>Integer</DataType>
            <Source xsi:type="ColumnBinding" dwd:design-time-name="68761b20-2fe8-4524-92d3-41d5c48ce23a">
              <TableID>dbo_DimPromotion</TableID>
              <ColumnID>MaxQty</ColumnID>
            </Source>
          </Source>
        </Measure>
        <Measure dwd:design-time-name="b2e9c27d-1456-4a7b-9783-e69373d3b292">
          <ID>Dim Promotion Count</ID>
          <Name>Dim Promotion Count</Name>
          <AggregateFunction>Count</AggregateFunction>
          <Source dwd:design-time-name="28126e65-181f-4e89-bfaa-1e9365125505">
            <DataType>Integer</DataType>
            <DataSize>4</DataSize>
            <Source xsi:type="RowBinding" dwd:design-time-name="1d5424db-d100-4176-aa73-5ded7ecfc5d6">
              <TableID>dbo_DimPromotion</TableID>
            </Source>
          </Source>
        </Measure>
      </Measures>
      <StorageMode>Molap</StorageMode>
      <ProcessingMode>Regular</ProcessingMode>
      <Dimensions>
        <Dimension xsi:type="DegenerateMeasureGroupDimension" dwd:design-time-name="dc1fde7d-e586-472f-825a-818e0c56c239">
          <CubeDimensionID>Dim Promotion</CubeDimensionID>
          <Attributes>
            <Attribute dwd:design-time-name="4c6cd7ee-acde-409b-b99c-cd34e595f364">
              <AttributeID>Promotion Key</AttributeID>
              <KeyColumns>
                <KeyColumn dwd:design-time-name="bec762a1-5d8a-4c76-a830-766ac813d345">
                  <DataType>Integer</DataType>
                  <Source xsi:type="ColumnBinding" dwd:design-time-name="9b239358-76a4-4c13-bdc6-b9e99a84a00d">
                    <TableID>dbo_DimPromotion</TableID>
                    <ColumnID>PromotionKey</ColumnID>
                  </Source>
                </KeyColumn>
              </KeyColumns>
              <Type>Granularity</Type>
            </Attribute>
          </Attributes>
        </Dimension>
      </Dimensions>
      <Partitions />
    </MeasureGroup>
    <MeasureGroup dwd:design-time-name="f6113889-63bc-4caa-b3b2-3799b11ed307">
      <ID>Dim Sales Territory</ID>
      <Name>Dim Sales Territory</Name>
      <CreatedTimestamp>0001-01-01T00:00:00Z</CreatedTimestamp>
      <LastSchemaUpdate>0001-01-01T00:00:00Z</LastSchemaUpdate>
      <LastProcessed>0001-01-01T00:00:00Z</LastProcessed>
      <State>Unprocessed</State>
      <Measures>
        <Measure dwd:design-time-name="db4b58fe-de9d-4b29-8c6d-8c16f88996f4">
          <ID>Sales Territory Alternate Key</ID>
          <Name>Sales Territory Alternate Key</Name>
          <Source dwd:design-time-name="724a4303-6702-4853-92b4-b85b320ed4a6">
            <DataType>Integer</DataType>
            <Source xsi:type="ColumnBinding" dwd:design-time-name="6075258d-af3c-4d33-b730-78f9dd79efe6">
              <TableID>dbo_DimSalesTerritory</TableID>
              <ColumnID>SalesTerritoryAlternateKey</ColumnID>
            </Source>
          </Source>
        </Measure>
        <Measure dwd:design-time-name="f4cad533-07bc-45ee-8abe-e9815af26100">
          <ID>Dim Sales Territory Count</ID>
          <Name>Dim Sales Territory Count</Name>
          <AggregateFunction>Count</AggregateFunction>
          <Source dwd:design-time-name="eb8310ce-c679-4925-aa3e-c45fa952b43b">
            <DataType>Integer</DataType>
            <DataSize>4</DataSize>
            <Source xsi:type="RowBinding" dwd:design-time-name="5fb638c4-713f-4f0b-bf7e-c47b5f1c6249">
              <TableID>dbo_DimSalesTerritory</TableID>
            </Source>
          </Source>
        </Measure>
      </Measures>
      <StorageMode>Molap</StorageMode>
      <ProcessingMode>Regular</ProcessingMode>
      <Dimensions>
        <Dimension xsi:type="DegenerateMeasureGroupDimension" dwd:design-time-name="af761ce1-b7ef-4f92-95d4-55dc00573579">
          <CubeDimensionID>Dim Sales Territory</CubeDimensionID>
          <Attributes>
            <Attribute dwd:design-time-name="2b06c0b9-86f6-4153-a540-cdf90ce304e9">
              <AttributeID>Sales Territory Key</AttributeID>
              <KeyColumns>
                <KeyColumn dwd:design-time-name="88737aeb-3050-4e99-81d0-145efe37f02d">
                  <DataType>Integer</DataType>
                  <Source xsi:type="ColumnBinding" dwd:design-time-name="5f14b9ee-c99c-41fe-8e48-96e6af98df47">
                    <TableID>dbo_DimSalesTerritory</TableID>
                    <ColumnID>SalesTerritoryKey</ColumnID>
                  </Source>
                </KeyColumn>
              </KeyColumns>
              <Type>Granularity</Type>
            </Attribute>
          </Attributes>
        </Dimension>
      </Dimensions>
      <Partitions />
    </MeasureGroup>
    <MeasureGroup dwd:design-time-name="e5fd1f43-a5c0-4f27-9374-a4dedc6bd8c0">
      <ID>Fact Internet Sales</ID>
      <Name>Fact Internet Sales</Name>
      <CreatedTimestamp>0001-01-01T00:00:00Z</CreatedTimestamp>
      <LastSchemaUpdate>0001-01-01T00:00:00Z</LastSchemaUpdate>
      <LastProcessed>0001-01-01T00:00:00Z</LastProcessed>
      <State>Unprocessed</State>
      <Measures>
        <Measure dwd:design-time-name="6c8fd7d3-2655-4bd9-99f0-870a2b16e6c7">
          <ID>Currency Key</ID>
          <Name>Currency Key</Name>
          <Source dwd:design-time-name="4e621cb9-8d82-4125-b1f7-f497a35396d1">
            <DataType>Integer</DataType>
            <Source xsi:type="ColumnBinding" dwd:design-time-name="4accc42b-5c64-46ff-9055-88ea9d3ca850">
              <TableID>dbo_FactInternetSales</TableID>
              <ColumnID>CurrencyKey</ColumnID>
            </Source>
          </Source>
        </Measure>
        <Measure dwd:design-time-name="80f3d969-e7df-48a2-8183-b983e11055a3">
          <ID>Revision Number</ID>
          <Name>Revision Number</Name>
          <Source dwd:design-time-name="469abb2a-e4c5-4503-ba88-3783252c007b">
            <DataType>UnsignedInt</DataType>
            <Source xsi:type="ColumnBinding" dwd:design-time-name="7e9e2d1b-811d-4d95-90b8-b90fbe9ba442">
              <TableID>dbo_FactInternetSales</TableID>
              <ColumnID>RevisionNumber</ColumnID>
            </Source>
          </Source>
        </Measure>
        <Measure dwd:design-time-name="ac7df557-8682-4637-94ef-75dec1f2164e">
          <ID>Order Quantity</ID>
          <Name>Order Quantity</Name>
          <Source dwd:design-time-name="291abc79-e44f-429a-ace3-dabe890c3302">
            <DataType>Integer</DataType>
            <Source xsi:type="ColumnBinding" dwd:design-time-name="7a7dc197-b43c-456d-97ac-ffc93524d9bc">
              <TableID>dbo_FactInternetSales</TableID>
              <ColumnID>OrderQuantity</ColumnID>
            </Source>
          </Source>
        </Measure>
        <Measure dwd:design-time-name="6da74e6a-eee3-4340-bd2b-c2277238f5fe">
          <ID>Unit Price</ID>
          <Name>Unit Price</Name>
          <Source dwd:design-time-name="db04eab7-62af-48ba-85a0-d40c49296248">
            <DataType>Double</DataType>
            <Source xsi:type="ColumnBinding" dwd:design-time-name="658e0fe0-94d5-42d9-92ec-9e98f27faed0">
              <TableID>dbo_FactInternetSales</TableID>
              <ColumnID>UnitPrice</ColumnID>
            </Source>
          </Source>
        </Measure>
        <Measure dwd:design-time-name="eb9991e1-0957-41e1-9f72-591c7b2d1d03">
          <ID>Extended Amount</ID>
          <Name>Extended Amount</Name>
          <Source dwd:design-time-name="545e8a6c-7b14-4034-b689-6936609830c5">
            <DataType>Double</DataType>
            <Source xsi:type="ColumnBinding" dwd:design-time-name="39eaabcf-7d60-4eef-9d46-5a287c777afb">
              <TableID>dbo_FactInternetSales</TableID>
              <ColumnID>ExtendedAmount</ColumnID>
            </Source>
          </Source>
        </Measure>
        <Measure dwd:design-time-name="affa9161-7edc-4d41-be4c-94d25727fc84">
          <ID>Unit Price Discount Pct</ID>
          <Name>Unit Price Discount Pct</Name>
          <Source dwd:design-time-name="566f0fb4-53af-4a28-be31-f2fddb7f5391">
            <DataType>Double</DataType>
            <Source xsi:type="ColumnBinding" dwd:design-time-name="a449a1a1-a72f-42d6-b418-0781c2611d2b">
              <TableID>dbo_FactInternetSales</TableID>
              <ColumnID>UnitPriceDiscountPct</ColumnID>
            </Source>
          </Source>
        </Measure>
        <Measure dwd:design-time-name="59aac6d6-4792-4e64-b966-d86e6ceeebdb">
          <ID>Discount Amount</ID>
          <Name>Discount Amount</Name>
          <Source dwd:design-time-name="85556a7b-c0f4-4708-9ef8-cb02402f5753">
            <DataType>Double</DataType>
            <Source xsi:type="ColumnBinding" dwd:design-time-name="029779ab-7e3f-4c0e-ae26-fc626af00768">
              <TableID>dbo_FactInternetSales</TableID>
              <ColumnID>DiscountAmount</ColumnID>
            </Source>
          </Source>
        </Measure>
        <Measure dwd:design-time-name="31beb087-c97a-4de7-b47a-57227b9ea23e">
          <ID>Product Standard Cost</ID>
          <Name>Product Standard Cost</Name>
          <Source dwd:design-time-name="1aac16c5-b5de-41d6-a947-183561209bfe">
            <DataType>Double</DataType>
            <Source xsi:type="ColumnBinding" dwd:design-time-name="42df6fd2-a839-45b0-89ab-844d4eeab72b">
              <TableID>dbo_FactInternetSales</TableID>
              <ColumnID>ProductStandardCost</ColumnID>
            </Source>
          </Source>
        </Measure>
        <Measure dwd:design-time-name="daeee1ff-2532-46f5-802c-d33004591ca8">
          <ID>Total Product Cost</ID>
          <Name>Total Product Cost</Name>
          <Source dwd:design-time-name="cd21cc54-f940-4299-842a-8999144a4efc">
            <DataType>Double</DataType>
            <Source xsi:type="ColumnBinding" dwd:design-time-name="49c54760-7a00-4109-9069-1147e9c94006">
              <TableID>dbo_FactInternetSales</TableID>
              <ColumnID>TotalProductCost</ColumnID>
            </Source>
          </Source>
        </Measure>
        <Measure dwd:design-time-name="7f408047-363f-4b7b-8a7f-7fee003f7698">
          <ID>Sales Amount</ID>
          <Name>Sales Amount</Name>
          <Source dwd:design-time-name="c4f57a01-41c2-42b3-91f5-3a7430145d93">
            <DataType>Double</DataType>
            <Source xsi:type="ColumnBinding" dwd:design-time-name="8629f0ee-2053-4be7-8c4b-d1b831111b4f">
              <TableID>dbo_FactInternetSales</TableID>
              <ColumnID>SalesAmount</ColumnID>
            </Source>
          </Source>
        </Measure>
        <Measure dwd:design-time-name="423c1c69-a80f-43d7-9218-39c3e0d2317c">
          <ID>Tax Amt</ID>
          <Name>Tax Amt</Name>
          <Source dwd:design-time-name="4f293e6d-32e5-4786-8b30-f43365d5a830">
            <DataType>Double</DataType>
            <Source xsi:type="ColumnBinding" dwd:design-time-name="3ce33c4b-b73f-4b7c-9f32-e382e81800b8">
              <TableID>dbo_FactInternetSales</TableID>
              <ColumnID>TaxAmt</ColumnID>
            </Source>
          </Source>
        </Measure>
        <Measure dwd:design-time-name="d8a3a7be-030f-49be-bfeb-fbb2ac485d51">
          <ID>Freight</ID>
          <Name>Freight</Name>
          <Source dwd:design-time-name="5565a656-1f38-417d-a826-dfb22c482e55">
            <DataType>Double</DataType>
            <Source xsi:type="ColumnBinding" dwd:design-time-name="f31aa193-6559-4876-a4c8-f73861328e2c">
              <TableID>dbo_FactInternetSales</TableID>
              <ColumnID>Freight</ColumnID>
            </Source>
          </Source>
        </Measure>
        <Measure dwd:design-time-name="3572b893-9b30-48b8-a586-38c13a60ac8d">
          <ID>Fact Internet Sales Count</ID>
          <Name>Fact Internet Sales Count</Name>
          <AggregateFunction>Count</AggregateFunction>
          <Source dwd:design-time-name="00ef1f2b-1f18-4d1a-8e66-bbeccbaad49c">
            <DataType>Integer</DataType>
            <DataSize>4</DataSize>
            <Source xsi:type="RowBinding" dwd:design-time-name="492d3726-eaf2-447c-bccb-d827cf4bc390">
              <TableID>dbo_FactInternetSales</TableID>
            </Source>
          </Source>
        </Measure>
      </Measures>
      <StorageMode>Molap</StorageMode>
      <ProcessingMode>Regular</ProcessingMode>
      <Dimensions>
        <Dimension xsi:type="RegularMeasureGroupDimension" dwd:design-time-name="b05acf13-bc1b-4967-9d2d-3f28e1139ad6">
          <CubeDimensionID>Dim Customer</CubeDimensionID>
          <Attributes>
            <Attribute dwd:design-time-name="0a96c930-4238-4154-ad85-f19ad1b25963">
              <AttributeID>Customer Key</AttributeID>
              <KeyColumns>
                <KeyColumn dwd:design-time-name="d95d557e-1ee4-44e2-a107-81977ca3b130">
                  <DataType>Integer</DataType>
                  <Source xsi:type="ColumnBinding" dwd:design-time-name="28debca9-49d8-41bb-8d51-8896728f210a">
                    <TableID>dbo_FactInternetSales</TableID>
                    <ColumnID>CustomerKey</ColumnID>
                  </Source>
                </KeyColumn>
              </KeyColumns>
              <Type>Granularity</Type>
            </Attribute>
          </Attributes>
        </Dimension>
        <Dimension xsi:type="RegularMeasureGroupDimension" dwd:design-time-name="120edd79-1805-4076-af4b-dc6339848e36">
          <CubeDimensionID>Dim Promotion</CubeDimensionID>
          <Attributes>
            <Attribute dwd:design-time-name="0226ed06-a73b-4704-87bc-7083f657c071">
              <AttributeID>Promotion Key</AttributeID>
              <KeyColumns>
                <KeyColumn dwd:design-time-name="b7a6b477-22cd-4201-b9e7-aaf9ebe73203">
                  <DataType>Integer</DataType>
                  <Source xsi:type="ColumnBinding" dwd:design-time-name="5913c20b-f388-4a12-b543-00319a070d0b">
                    <TableID>dbo_FactInternetSales</TableID>
                    <ColumnID>PromotionKey</ColumnID>
                  </Source>
                </KeyColumn>
              </KeyColumns>
              <Type>Granularity</Type>
            </Attribute>
          </Attributes>
        </Dimension>
        <Dimension xsi:type="RegularMeasureGroupDimension" dwd:design-time-name="663d5c70-1752-4635-b04b-f13f3b4243d5">
          <CubeDimensionID>Dim Product</CubeDimensionID>
          <Attributes>
            <Attribute dwd:design-time-name="7b7d850c-b6ce-46aa-9030-88fe5f932dd5">
              <AttributeID>Product Key</AttributeID>
              <KeyColumns>
                <KeyColumn dwd:design-time-name="b09ad0c8-b5ba-438f-aea0-5ed03b9abfc3">
                  <DataType>Integer</DataType>
                  <Source xsi:type="ColumnBinding" dwd:design-time-name="39296b64-f51c-4e80-a1a8-eeeb18e20b0a">
                    <TableID>dbo_FactInternetSales</TableID>
                    <ColumnID>ProductKey</ColumnID>
                  </Source>
                </KeyColumn>
              </KeyColumns>
              <Type>Granularity</Type>
            </Attribute>
          </Attributes>
        </Dimension>
        <Dimension xsi:type="RegularMeasureGroupDimension" dwd:design-time-name="9c6b5532-a657-427f-a3b6-92ca01acd482">
          <CubeDimensionID>Order Date</CubeDimensionID>
          <Attributes>
            <Attribute dwd:design-time-name="25d2f770-e718-488e-a412-3f2234741e40">
              <AttributeID>Date Key</AttributeID>
              <KeyColumns>
                <KeyColumn dwd:design-time-name="5cbb70c5-2609-4979-86d6-0a9bdb681cc2">
                  <DataType>Integer</DataType>
                  <Source xsi:type="ColumnBinding" dwd:design-time-name="edffe84f-b0b9-494c-a015-d5fb80c1dd24">
                    <TableID>dbo_FactInternetSales</TableID>
                    <ColumnID>OrderDateKey</ColumnID>
                  </Source>
                </KeyColumn>
              </KeyColumns>
              <Type>Granularity</Type>
            </Attribute>
          </Attributes>
        </Dimension>
        <Dimension xsi:type="RegularMeasureGroupDimension" dwd:design-time-name="2f86d9e3-38e5-40ae-bc3a-938a595af942">
          <CubeDimensionID>Ship Date</CubeDimensionID>
          <Attributes>
            <Attribute dwd:design-time-name="c886a138-be67-4b73-8fa2-c3d3694a5a62">
              <AttributeID>Date Key</AttributeID>
              <KeyColumns>
                <KeyColumn dwd:design-time-name="40b6231b-9722-4833-abd4-fce79c1d27df">
                  <DataType>Integer</DataType>
                  <Source xsi:type="ColumnBinding" dwd:design-time-name="0614d1ad-cb9d-48ab-9963-2959a2fd78be">
                    <TableID>dbo_FactInternetSales</TableID>
                    <ColumnID>ShipDateKey</ColumnID>
                  </Source>
                </KeyColumn>
              </KeyColumns>
              <Type>Granularity</Type>
            </Attribute>
          </Attributes>
        </Dimension>
        <Dimension xsi:type="RegularMeasureGroupDimension" dwd:design-time-name="2c5752f2-890b-49c6-b9a6-98133a6d20fa">
          <CubeDimensionID>Due Date</CubeDimensionID>
          <Attributes>
            <Attribute dwd:design-time-name="a73139e2-e149-4ff8-b1aa-9571b53a7b91">
              <AttributeID>Date Key</AttributeID>
              <KeyColumns>
                <KeyColumn dwd:design-time-name="09e43b35-26c2-4919-b0a6-c2e66ccea264">
                  <DataType>Integer</DataType>
                  <Source xsi:type="ColumnBinding" dwd:design-time-name="5ae3b939-ae23-46dc-a486-d812534e15e1">
                    <TableID>dbo_FactInternetSales</TableID>
                    <ColumnID>DueDateKey</ColumnID>
                  </Source>
                </KeyColumn>
              </KeyColumns>
              <Type>Granularity</Type>
            </Attribute>
          </Attributes>
        </Dimension>
        <Dimension xsi:type="RegularMeasureGroupDimension" dwd:design-time-name="c22e75e5-8e93-4804-8581-f04503712edd">
          <CubeDimensionID>Dim Sales Territory</CubeDimensionID>
          <Attributes>
            <Attribute dwd:design-time-name="66c66c91-2eb1-432e-9aac-a53cc5c2c033">
              <AttributeID>Sales Territory Key</AttributeID>
              <KeyColumns>
                <KeyColumn dwd:design-time-name="fbd78f24-ad32-4d72-90bd-5891e423d3a9">
                  <DataType>Integer</DataType>
                  <Source xsi:type="ColumnBinding" dwd:design-time-name="eaa90103-5bc7-4856-a8aa-805c06c4b1a5">
                    <TableID>dbo_FactInternetSales</TableID>
                    <ColumnID>SalesTerritoryKey</ColumnID>
                  </Source>
                </KeyColumn>
              </KeyColumns>
              <Type>Granularity</Type>
            </Attribute>
          </Attributes>
        </Dimension>
      </Dimensions>
      <Partitions />
    </MeasureGroup>
    <MeasureGroup dwd:design-time-name="7cf21144-d6b4-4327-b1a5-95044db88c11">
      <ID>Fact Internet Sales 2</ID>
      <Name>Fact Internet Sales_1</Name>
      <CreatedTimestamp>0001-01-01T00:00:00Z</CreatedTimestamp>
      <LastSchemaUpdate>0001-01-01T00:00:00Z</LastSchemaUpdate>
      <LastProcessed>0001-01-01T00:00:00Z</LastProcessed>
      <State>Unprocessed</State>
      <Measures>
        <Measure dwd:design-time-name="56cbb4c4-9733-4e14-a24e-9b85cd493a73">
          <ID>Customer Key Distinct Count</ID>
          <Name>distinct_count_customer</Name>
          <AggregateFunction>DistinctCount</AggregateFunction>
          <DataType>Integer</DataType>
          <Source dwd:design-time-name="1af614ce-87d4-49f7-b8a3-c589f150c327">
            <DataType>Integer</DataType>
            <Source xsi:type="ColumnBinding" dwd:design-time-name="66f8394e-0269-469c-9e57-af6559f960e9">
              <TableID>dbo_FactInternetSales</TableID>
              <ColumnID>CustomerKey</ColumnID>
            </Source>
          </Source>
        </Measure>
      </Measures>
      <StorageMode>Molap</StorageMode>
      <ProcessingMode>Regular</ProcessingMode>
      <Dimensions>
        <Dimension xsi:type="RegularMeasureGroupDimension" dwd:design-time-name="09a9230e-e872-4aaf-9a42-e43cc79508a3">
          <CubeDimensionID>Dim Promotion</CubeDimensionID>
          <Attributes>
            <Attribute dwd:design-time-name="8c4365c6-105a-43b1-b954-9564b8010315">
              <AttributeID>Promotion Key</AttributeID>
              <KeyColumns>
                <KeyColumn dwd:design-time-name="9f52f329-1eff-4b90-9abd-5ee5a076571d">
                  <DataType>Integer</DataType>
                  <Source xsi:type="ColumnBinding" dwd:design-time-name="830437c6-f4f6-4e7c-af17-d9c389d62e87">
                    <TableID>dbo_FactInternetSales</TableID>
                    <ColumnID>PromotionKey</ColumnID>
                  </Source>
                </KeyColumn>
              </KeyColumns>
              <Type>Granularity</Type>
            </Attribute>
          </Attributes>
        </Dimension>
        <Dimension xsi:type="RegularMeasureGroupDimension" dwd:design-time-name="3d9a7b8e-280f-4932-8f2e-295ee0075d88">
          <CubeDimensionID>Dim Product</CubeDimensionID>
          <Attributes>
            <Attribute dwd:design-time-name="f2a3390d-5eb4-4d38-b2bc-0adf4b3d5160">
              <AttributeID>Product Key</AttributeID>
              <KeyColumns>
                <KeyColumn dwd:design-time-name="ec478faa-67b8-4c73-8581-0ccd8273c6fc">
                  <DataType>Integer</DataType>
                  <Source xsi:type="ColumnBinding" dwd:design-time-name="b286ee1c-e7dc-41f9-af84-c6385f14692a">
                    <TableID>dbo_FactInternetSales</TableID>
                    <ColumnID>ProductKey</ColumnID>
                  </Source>
                </KeyColumn>
              </KeyColumns>
              <Type>Granularity</Type>
            </Attribute>
          </Attributes>
        </Dimension>
        <Dimension xsi:type="RegularMeasureGroupDimension" dwd:design-time-name="29f38183-2225-4174-b01b-09a03b357866">
          <CubeDimensionID>Order Date</CubeDimensionID>
          <Attributes>
            <Attribute dwd:design-time-name="96852497-bbb0-4ff8-917a-1c6f24c92e67">
              <AttributeID>Date Key</AttributeID>
              <KeyColumns>
                <KeyColumn dwd:design-time-name="c79d5283-0e13-4b42-8b31-0778aee5de03">
                  <DataType>Integer</DataType>
                  <Source xsi:type="ColumnBinding" dwd:design-time-name="dfd00b79-7e6f-4fe2-a92f-e61b29b86c0b">
                    <TableID>dbo_FactInternetSales</TableID>
                    <ColumnID>OrderDateKey</ColumnID>
                  </Source>
                </KeyColumn>
              </KeyColumns>
              <Type>Granularity</Type>
            </Attribute>
          </Attributes>
        </Dimension>
        <Dimension xsi:type="RegularMeasureGroupDimension" dwd:design-time-name="01de8863-232f-4ce9-88f7-0e50c4aee5db">
          <CubeDimensionID>Ship Date</CubeDimensionID>
          <Attributes>
            <Attribute dwd:design-time-name="6c05df87-0fe7-4df5-baf8-1a22c180cfae">
              <AttributeID>Date Key</AttributeID>
              <KeyColumns>
                <KeyColumn dwd:design-time-name="13a37fe9-20b5-405a-8f91-1917be882e80">
                  <DataType>Integer</DataType>
                  <Source xsi:type="ColumnBinding" dwd:design-time-name="9d55c880-f210-473e-8134-263873315e93">
                    <TableID>dbo_FactInternetSales</TableID>
                    <ColumnID>ShipDateKey</ColumnID>
                  </Source>
                </KeyColumn>
              </KeyColumns>
              <Type>Granularity</Type>
            </Attribute>
          </Attributes>
        </Dimension>
        <Dimension xsi:type="RegularMeasureGroupDimension" dwd:design-time-name="7a1e8f54-5035-41c1-bca9-f3960b7428fe">
          <CubeDimensionID>Due Date</CubeDimensionID>
          <Attributes>
            <Attribute dwd:design-time-name="0aa8c6a0-e7b1-4a56-86a2-8884dd9267a7">
              <AttributeID>Date Key</AttributeID>
              <KeyColumns>
                <KeyColumn dwd:design-time-name="e8d8f2cf-6edf-4cbc-8113-cdc1dc229740">
                  <DataType>Integer</DataType>
                  <Source xsi:type="ColumnBinding" dwd:design-time-name="c98add25-b8ce-41dd-add6-3fe1de426482">
                    <TableID>dbo_FactInternetSales</TableID>
                    <ColumnID>DueDateKey</ColumnID>
                  </Source>
                </KeyColumn>
              </KeyColumns>
              <Type>Granularity</Type>
            </Attribute>
          </Attributes>
        </Dimension>
        <Dimension xsi:type="RegularMeasureGroupDimension" dwd:design-time-name="ae8bc6f9-e9c9-46e7-af78-3397819d9ca1">
          <CubeDimensionID>Dim Customer</CubeDimensionID>
          <Attributes>
            <Attribute dwd:design-time-name="5a08f927-dd38-4d3f-ad87-7833605f69b3">
              <AttributeID>Customer Key</AttributeID>
              <KeyColumns>
                <KeyColumn dwd:design-time-name="92eed4b3-1484-427b-8100-38881653b08d">
                  <DataType>Integer</DataType>
                  <Source xsi:type="ColumnBinding" dwd:design-time-name="1747c2b3-d7f1-42b9-bb1a-1b9640655e84">
                    <TableID>dbo_FactInternetSales</TableID>
                    <ColumnID>CustomerKey</ColumnID>
                  </Source>
                </KeyColumn>
              </KeyColumns>
              <Type>Granularity</Type>
            </Attribute>
          </Attributes>
        </Dimension>
        <Dimension xsi:type="RegularMeasureGroupDimension" dwd:design-time-name="ebac6ed4-0b48-4bcc-b5fe-e16735f30386">
          <CubeDimensionID>Dim Sales Territory</CubeDimensionID>
          <Attributes>
            <Attribute dwd:design-time-name="1ed0194a-4087-4cce-8ccb-f339e4c9755a">
              <AttributeID>Sales Territory Key</AttributeID>
              <KeyColumns>
                <KeyColumn dwd:design-time-name="5eeed74a-ab71-43d6-b159-89a9ed60bb9e">
                  <DataType>Integer</DataType>
                  <Source xsi:type="ColumnBinding" dwd:design-time-name="0c9f1ef2-8202-4f7a-87ef-570373a13300">
                    <TableID>dbo_FactInternetSales</TableID>
                    <ColumnID>SalesTerritoryKey</ColumnID>
                  </Source>
                </KeyColumn>
              </KeyColumns>
              <Type>Granularity</Type>
            </Attribute>
          </Attributes>
        </Dimension>
      </Dimensions>
      <Partitions />
    </MeasureGroup>
    <MeasureGroup dwd:design-time-name="a2edce37-5e04-4ba7-b240-7351683667c0">
      <ID>Fact Internet Sales 1</ID>
      <Name>Fact Internet Sales 1</Name>
      <CreatedTimestamp>0001-01-01T00:00:00Z</CreatedTimestamp>
      <LastSchemaUpdate>0001-01-01T00:00:00Z</LastSchemaUpdate>
      <LastProcessed>0001-01-01T00:00:00Z</LastProcessed>
      <State>Unprocessed</State>
      <Measures>
        <Measure dwd:design-time-name="00772465-4bf1-4728-b72f-b272c7a77bbe">
          <ID>Product Key Distinct Count</ID>
          <Name>Product Key Distinct Count</Name>
          <AggregateFunction>DistinctCount</AggregateFunction>
          <DataType>Integer</DataType>
          <Source dwd:design-time-name="e2beec35-9153-4d5c-862f-3069bdcf7135">
            <DataType>Integer</DataType>
            <Source xsi:type="ColumnBinding" dwd:design-time-name="336bc6c3-62bf-4ad4-b8ad-4d0d58b1649a">
              <TableID>dbo_FactInternetSales</TableID>
              <ColumnID>ProductKey</ColumnID>
            </Source>
          </Source>
        </Measure>
      </Measures>
      <StorageMode>Molap</StorageMode>
      <ProcessingMode>Regular</ProcessingMode>
      <Dimensions>
        <Dimension xsi:type="RegularMeasureGroupDimension" dwd:design-time-name="4046dec3-ae2b-4a89-965a-6180ddd57762">
          <CubeDimensionID>Dim Customer</CubeDimensionID>
          <Attributes>
            <Attribute dwd:design-time-name="006cde73-3ecb-4620-a961-9d19a0738acb">
              <AttributeID>Customer Key</AttributeID>
              <KeyColumns>
                <KeyColumn dwd:design-time-name="bea1abf5-fa66-479d-96a9-97138e047232">
                  <DataType>Integer</DataType>
                  <Source xsi:type="ColumnBinding" dwd:design-time-name="c93f1578-351e-42a1-b630-f019e30f653a">
                    <TableID>dbo_FactInternetSales</TableID>
                    <ColumnID>CustomerKey</ColumnID>
                  </Source>
                </KeyColumn>
              </KeyColumns>
              <Type>Granularity</Type>
            </Attribute>
          </Attributes>
        </Dimension>
        <Dimension xsi:type="RegularMeasureGroupDimension" dwd:design-time-name="eee2dde3-3fe9-4627-92cd-f9f9bc2e2775">
          <CubeDimensionID>Dim Promotion</CubeDimensionID>
          <Attributes>
            <Attribute dwd:design-time-name="fb88e883-d51a-49ed-8bbb-b1e4ec6908bb">
              <AttributeID>Promotion Key</AttributeID>
              <KeyColumns>
                <KeyColumn dwd:design-time-name="781cc69d-7a27-4219-a16b-be9ab753f20e">
                  <DataType>Integer</DataType>
                  <Source xsi:type="ColumnBinding" dwd:design-time-name="bc6ecbda-c608-480b-aec8-b563ca3061c2">
                    <TableID>dbo_FactInternetSales</TableID>
                    <ColumnID>PromotionKey</ColumnID>
                  </Source>
                </KeyColumn>
              </KeyColumns>
              <Type>Granularity</Type>
            </Attribute>
          </Attributes>
        </Dimension>
        <Dimension xsi:type="RegularMeasureGroupDimension" dwd:design-time-name="80aa77e2-2101-4f22-9a64-8c86f869bed4">
          <CubeDimensionID>Dim Product</CubeDimensionID>
          <Attributes>
            <Attribute dwd:design-time-name="6281334a-1187-4089-ac1a-20d676aeb44f">
              <AttributeID>Product Key</AttributeID>
              <KeyColumns>
                <KeyColumn dwd:design-time-name="bc8925fe-5c5c-44bb-8884-8b58e1c371a3">
                  <DataType>Integer</DataType>
                  <Source xsi:type="ColumnBinding" dwd:design-time-name="ac1a53f5-5579-4234-aac5-3455ca805a18">
                    <TableID>dbo_FactInternetSales</TableID>
                    <ColumnID>ProductKey</ColumnID>
                  </Source>
                </KeyColumn>
              </KeyColumns>
              <Type>Granularity</Type>
            </Attribute>
          </Attributes>
        </Dimension>
        <Dimension xsi:type="RegularMeasureGroupDimension" dwd:design-time-name="efa37bd8-1c9c-45db-a3be-487c37c40524">
          <CubeDimensionID>Order Date</CubeDimensionID>
          <Attributes>
            <Attribute dwd:design-time-name="fd1d8d83-e072-4aa0-9fed-a4a44716fd99">
              <AttributeID>Date Key</AttributeID>
              <KeyColumns>
                <KeyColumn dwd:design-time-name="cead30a3-7d04-4678-bcca-53e5b60c22e6">
                  <DataType>Integer</DataType>
                  <Source xsi:type="ColumnBinding" dwd:design-time-name="00fe5041-c153-4bcd-b5e6-87073787e0ff">
                    <TableID>dbo_FactInternetSales</TableID>
                    <ColumnID>OrderDateKey</ColumnID>
                  </Source>
                </KeyColumn>
              </KeyColumns>
              <Type>Granularity</Type>
            </Attribute>
          </Attributes>
        </Dimension>
        <Dimension xsi:type="RegularMeasureGroupDimension" dwd:design-time-name="a6900563-6914-4be5-b9c4-ee11b75166b0">
          <CubeDimensionID>Ship Date</CubeDimensionID>
          <Attributes>
            <Attribute dwd:design-time-name="16f732ea-4303-46ee-b2ba-6cde58a7943b">
              <AttributeID>Date Key</AttributeID>
              <KeyColumns>
                <KeyColumn dwd:design-time-name="5c696e21-fd25-4704-9d03-f5ecc5ad3723">
                  <DataType>Integer</DataType>
                  <Source xsi:type="ColumnBinding" dwd:design-time-name="912ca96f-aaa7-43e8-a3bd-3e9454a7ad2a">
                    <TableID>dbo_FactInternetSales</TableID>
                    <ColumnID>ShipDateKey</ColumnID>
                  </Source>
                </KeyColumn>
              </KeyColumns>
              <Type>Granularity</Type>
            </Attribute>
          </Attributes>
        </Dimension>
        <Dimension xsi:type="RegularMeasureGroupDimension" dwd:design-time-name="0fd90539-2f6a-4f1c-af24-7656ecf38317">
          <CubeDimensionID>Due Date</CubeDimensionID>
          <Attributes>
            <Attribute dwd:design-time-name="d0931180-b04f-46f8-827a-6d2d1f3750fc">
              <AttributeID>Date Key</AttributeID>
              <KeyColumns>
                <KeyColumn dwd:design-time-name="b16cf134-6977-46f4-9c98-4237cf3374c3">
                  <DataType>Integer</DataType>
                  <Source xsi:type="ColumnBinding" dwd:design-time-name="978bf894-c9bb-437b-8841-f41f7dbf9ab8">
                    <TableID>dbo_FactInternetSales</TableID>
                    <ColumnID>DueDateKey</ColumnID>
                  </Source>
                </KeyColumn>
              </KeyColumns>
              <Type>Granularity</Type>
            </Attribute>
          </Attributes>
        </Dimension>
        <Dimension xsi:type="RegularMeasureGroupDimension" dwd:design-time-name="b31829ea-7534-4447-88bd-02a8a89c80bf">
          <CubeDimensionID>Dim Sales Territory</CubeDimensionID>
          <Attributes>
            <Attribute dwd:design-time-name="cb0ac9a0-53c2-45f9-bb01-762877e4044a">
              <AttributeID>Sales Territory Key</AttributeID>
              <KeyColumns>
                <KeyColumn dwd:design-time-name="75e8dfa1-d84b-422a-b3ff-73d6f113e0ea">
                  <DataType>Integer</DataType>
                  <Source xsi:type="ColumnBinding" dwd:design-time-name="273f7960-56c9-468d-8669-2628c8428db1">
                    <TableID>dbo_FactInternetSales</TableID>
                    <ColumnID>SalesTerritoryKey</ColumnID>
                  </Source>
                </KeyColumn>
              </KeyColumns>
              <Type>Granularity</Type>
            </Attribute>
          </Attributes>
        </Dimension>
      </Dimensions>
      <Partitions />
    </MeasureGroup>
  </MeasureGroups>
  <Source dwd:design-time-name="66e7c1ef-e449-4a06-882b-016132537388">
    <DataSourceViewID>Adventure Works DW20141</DataSourceViewID>
  </Source>
  <MdxScripts>
    <MdxScript dwd:design-time-name="d03de389-21c3-4c42-a9c4-623cf6bfed1b">
      <ID>MdxScript</ID>
      <Name>MdxScript</Name>
      <CreatedTimestamp>0001-01-01T00:00:00Z</CreatedTimestamp>
      <LastSchemaUpdate>0001-01-01T00:00:00Z</LastSchemaUpdate>
      <Commands>
        <Command>
          <Text>/*
The CALCULATE command controls the aggregation of leaf cells in the cube.
If the CALCULATE command is deleted or modified, the data within the cube is affected.
You should edit this command only if you manually specify how the cube is aggregated.
*/
CALCULATE; 
CREATE MEMBER CURRENTCUBE.[Measures].[Total_price]
 AS [Measures].[Tax Amt]+[Measures].[Product Standard Cost], 
FORMAT_STRING = "Currency", 
VISIBLE = 1  ; </Text>
        </Command>
      </Commands>
    </MdxScript>
  </MdxScripts>
</Cube>